<svg width="89" height="89" viewBox="0 0 89 89" fill="none" xmlns="http://www.w3.org/2000/svg">
<g filter="url(#filter0_d_206_4342)">
<rect x="12" y="6" width="65" height="65" rx="32.5" fill="url(#paint0_linear_206_4342)"/>
</g>
<path fill-rule="evenodd" clip-rule="evenodd" d="M44.9167 28.5C43.9962 28.5 43.25 29.2462 43.25 30.1667V37.25H36.1667C35.2462 37.25 34.5 37.9962 34.5 38.9167C34.5 39.8371 35.2462 40.5833 36.1667 40.5833H43.25V47.6667C43.25 48.5871 43.9962 49.3333 44.9167 49.3333C45.8371 49.3333 46.5833 48.5871 46.5833 47.6667V40.5833H53.6667C54.5871 40.5833 55.3333 39.8371 55.3333 38.9167C55.3333 37.9962 54.5871 37.25 53.6667 37.25H46.5833V30.1667C46.5833 29.2462 45.8371 28.5 44.9167 28.5Z" fill="black"/>
<defs>
<filter id="filter0_d_206_4342" x="0.333334" y="0.166667" width="88.3333" height="88.3333" filterUnits="userSpaceOnUse" color-interpolation-filters="sRGB">
<feFlood flood-opacity="0" result="BackgroundImageFix"/>
<feColorMatrix in="SourceAlpha" type="matrix" values="0 0 0 0 0 0 0 0 0 0 0 0 0 0 0 0 0 0 127 0" result="hardAlpha"/>
<feOffset dy="5.83333"/>
<feGaussianBlur stdDeviation="5.83333"/>
<feComposite in2="hardAlpha" operator="out"/>
<feColorMatrix type="matrix" values="0 0 0 0 0 0 0 0 0 0 0 0 0 0 0 0 0 0 0.45 0"/>
<feBlend mode="normal" in2="BackgroundImageFix" result="effect1_dropShadow_206_4342"/>
<feBlend mode="normal" in="SourceGraphic" in2="effect1_dropShadow_206_4342" result="shape"/>
</filter>
<linearGradient id="paint0_linear_206_4342" x1="44.5" y1="6" x2="44.5" y2="71" gradientUnits="userSpaceOnUse">
<stop stop-color="#FBA81A"/>
<stop offset="1" stop-color="#CA8611"/>
</linearGradient>
</defs>
</svg>
