<svg width="374" height="256" viewBox="0 0 374 256" fill="none" xmlns="http://www.w3.org/2000/svg">
<path opacity="0.5" d="M9.231 13.492H5.644V17.113H4.131V13.492H0.561V12.081H4.131V8.443H5.644V12.081H9.231V13.492ZM10.7639 12.931C10.7639 14.8577 11.0813 16.3593 11.7159 17.436C12.3506 18.5127 13.4499 19.051 15.0139 19.051C16.5779 19.051 17.6773 18.5127 18.3119 17.436C18.9579 16.3593 19.2809 14.8577 19.2809 12.931C19.2809 11.027 18.9579 9.53667 18.3119 8.46C17.6773 7.38333 16.5779 6.845 15.0139 6.845C13.4499 6.845 12.3506 7.38333 11.7159 8.46C11.0813 9.52533 10.7639 11.0157 10.7639 12.931ZM17.7509 12.931C17.7509 13.917 17.6773 14.7443 17.5299 15.413C17.3939 16.0703 17.1276 16.5973 16.7309 16.994C16.3343 17.3907 15.7619 17.589 15.0139 17.589C14.2773 17.589 13.7106 17.3907 13.3139 16.994C12.9173 16.5973 12.6453 16.0703 12.4979 15.413C12.3619 14.7443 12.2939 13.917 12.2939 12.931C12.2939 11.9563 12.3619 11.1403 12.4979 10.483C12.6453 9.82567 12.9173 9.30433 13.3139 8.919C13.7106 8.52233 14.2773 8.324 15.0139 8.324C15.7619 8.324 16.3343 8.52233 16.7309 8.919C17.1276 9.30433 17.3939 9.82567 17.5299 10.483C17.6773 11.1403 17.7509 11.9563 17.7509 12.931ZM22.6173 17.181V19H20.7473V17.181H22.6173ZM24.1116 12.931C24.1116 14.8577 24.4289 16.3593 25.0636 17.436C25.6982 18.5127 26.7976 19.051 28.3616 19.051C29.9256 19.051 31.0249 18.5127 31.6596 17.436C32.3056 16.3593 32.6286 14.8577 32.6286 12.931C32.6286 11.027 32.3056 9.53667 31.6596 8.46C31.0249 7.38333 29.9256 6.845 28.3616 6.845C26.7976 6.845 25.6982 7.38333 25.0636 8.46C24.4289 9.52533 24.1116 11.0157 24.1116 12.931ZM31.0986 12.931C31.0986 13.917 31.0249 14.7443 30.8776 15.413C30.7416 16.0703 30.4752 16.5973 30.0786 16.994C29.6819 17.3907 29.1096 17.589 28.3616 17.589C27.6249 17.589 27.0582 17.3907 26.6616 16.994C26.2649 16.5973 25.9929 16.0703 25.8456 15.413C25.7096 14.7443 25.6416 13.917 25.6416 12.931C25.6416 11.9563 25.7096 11.1403 25.8456 10.483C25.9929 9.82567 26.2649 9.30433 26.6616 8.919C27.0582 8.52233 27.6249 8.324 28.3616 8.324C29.1096 8.324 29.6819 8.52233 30.0786 8.919C30.4752 9.30433 30.7416 9.82567 30.8776 10.483C31.0249 11.1403 31.0986 11.9563 31.0986 12.931ZM34.554 12.931C34.554 14.8577 34.8713 16.3593 35.506 17.436C36.1406 18.5127 37.24 19.051 38.804 19.051C40.368 19.051 41.4673 18.5127 42.102 17.436C42.748 16.3593 43.071 14.8577 43.071 12.931C43.071 11.027 42.748 9.53667 42.102 8.46C41.4673 7.38333 40.368 6.845 38.804 6.845C37.24 6.845 36.1406 7.38333 35.506 8.46C34.8713 9.52533 34.554 11.0157 34.554 12.931ZM41.541 12.931C41.541 13.917 41.4673 14.7443 41.32 15.413C41.184 16.0703 40.9176 16.5973 40.521 16.994C40.1243 17.3907 39.552 17.589 38.804 17.589C38.0673 17.589 37.5006 17.3907 37.104 16.994C36.7073 16.5973 36.4353 16.0703 36.288 15.413C36.152 14.7443 36.084 13.917 36.084 12.931C36.084 11.9563 36.152 11.1403 36.288 10.483C36.4353 9.82567 36.7073 9.30433 37.104 8.919C37.5006 8.52233 38.0673 8.324 38.804 8.324C39.552 8.324 40.1243 8.52233 40.521 8.919C40.9176 9.30433 41.184 9.82567 41.32 10.483C41.4673 11.1403 41.541 11.9563 41.541 12.931ZM49.1103 6.692C49.881 6.692 50.544 6.828 51.0993 7.1C51.6547 7.372 52.074 7.746 52.3573 8.222C52.6407 8.698 52.7823 9.23633 52.7823 9.837C52.7823 10.585 52.5613 11.214 52.1193 11.724C51.6887 12.234 51.054 12.54 50.2153 12.642V12.744C51.088 12.9707 51.768 13.322 52.2553 13.798C52.754 14.274 53.0033 14.9313 53.0033 15.77C53.0033 16.756 52.6747 17.5607 52.0173 18.184C51.36 18.8073 50.4137 19.119 49.1783 19.119C47.943 19.119 46.94 18.8017 46.1693 18.167C45.41 17.521 44.9623 16.5803 44.8263 15.345H46.3563C46.4583 16.093 46.7417 16.688 47.2063 17.13C47.6823 17.572 48.3227 17.793 49.1273 17.793C49.8867 17.793 50.4703 17.6003 50.8783 17.215C51.2863 16.8183 51.4903 16.3083 51.4903 15.685C51.4903 14.937 51.1957 14.3703 50.6063 13.985C50.0283 13.5883 49.201 13.39 48.1243 13.39H47.7163V12.098H48.1243C50.2097 12.098 51.2523 11.401 51.2523 10.007C51.2523 9.395 51.0597 8.90767 50.6743 8.545C50.289 8.18233 49.7563 8.001 49.0763 8.001C48.3963 8.001 47.824 8.19933 47.3593 8.596C46.8947 8.98133 46.6227 9.55367 46.5433 10.313H45.0303C45.1097 9.17967 45.5007 8.29567 46.2033 7.661C46.9173 7.015 47.8863 6.692 49.1103 6.692ZM55.0071 12.931C55.0071 14.8577 55.3244 16.3593 55.9591 17.436C56.5938 18.5127 57.6931 19.051 59.2571 19.051C60.8211 19.051 61.9204 18.5127 62.5551 17.436C63.2011 16.3593 63.5241 14.8577 63.5241 12.931C63.5241 11.027 63.2011 9.53667 62.5551 8.46C61.9204 7.38333 60.8211 6.845 59.2571 6.845C57.6931 6.845 56.5938 7.38333 55.9591 8.46C55.3244 9.52533 55.0071 11.0157 55.0071 12.931ZM61.9941 12.931C61.9941 13.917 61.9204 14.7443 61.7731 15.413C61.6371 16.0703 61.3708 16.5973 60.9741 16.994C60.5774 17.3907 60.0051 17.589 59.2571 17.589C58.5204 17.589 57.9538 17.3907 57.5571 16.994C57.1604 16.5973 56.8884 16.0703 56.7411 15.413C56.6051 14.7443 56.5371 13.917 56.5371 12.931C56.5371 11.9563 56.6051 11.1403 56.7411 10.483C56.8884 9.82567 57.1604 9.30433 57.5571 8.919C57.9538 8.52233 58.5204 8.324 59.2571 8.324C60.0051 8.324 60.5774 8.52233 60.9741 8.919C61.3708 9.30433 61.6371 9.82567 61.7731 10.483C61.9204 11.1403 61.9941 11.9563 61.9941 12.931ZM73.5245 8.239H67.3705V12.251C67.6538 11.8657 68.0618 11.5597 68.5945 11.333C69.1271 11.1063 69.7108 10.993 70.3455 10.993C71.1955 10.993 71.8981 11.1743 72.4535 11.537C73.0201 11.8883 73.4338 12.3587 73.6945 12.948C73.9665 13.526 74.1025 14.172 74.1025 14.886C74.1025 16.1213 73.7568 17.13 73.0655 17.912C72.3741 18.694 71.3598 19.085 70.0225 19.085C68.8211 19.085 67.8408 18.762 67.0815 18.116C66.3221 17.4587 65.8971 16.5803 65.8065 15.481H67.3365C67.4611 16.1837 67.7501 16.7333 68.2035 17.13C68.6681 17.5153 69.2518 17.708 69.9545 17.708C70.8271 17.708 71.4845 17.4473 71.9265 16.926C72.3685 16.4047 72.5895 15.719 72.5895 14.869C72.5895 14.0417 72.3628 13.3957 71.9095 12.931C71.4561 12.4663 70.8158 12.234 69.9885 12.234C69.3991 12.234 68.8835 12.3643 68.4415 12.625C67.9995 12.8743 67.6651 13.2143 67.4385 13.645H65.9425V6.862H73.5245V8.239Z" fill="white"/>
<rect x="309.5" y="2.5" width="61" height="23" rx="11.5" fill="#1B3F0E"/>
<path d="M333.282 16.9931H338.302V15.6031H335.602C336.762 14.7131 338.192 13.4331 338.192 11.8331C338.192 10.6031 337.452 9.63314 335.792 9.63314C334.462 9.63314 333.312 10.3931 333.262 12.1631H334.912C334.912 11.4731 335.212 11.0731 335.722 11.0731C336.242 11.0731 336.482 11.4131 336.482 11.9431C336.482 13.1731 334.832 14.4431 333.282 15.7231V16.9931ZM341.035 16.2531C341.035 15.7231 340.625 15.3131 340.025 15.3131C339.415 15.3131 339.005 15.7231 339.005 16.2531C339.005 16.7631 339.415 17.1731 340.025 17.1731C340.625 17.1731 341.035 16.7631 341.035 16.2531ZM341.937 11.8531H343.607C343.637 11.4531 343.837 11.0531 344.387 11.0531C344.847 11.0531 345.137 11.3231 345.137 11.8131C345.137 12.4731 344.577 12.6131 343.997 12.6131H343.677V14.0031H343.997C344.887 14.0031 345.277 14.2631 345.277 14.9131C345.277 15.3931 344.987 15.7331 344.457 15.7331C343.827 15.7331 343.517 15.3531 343.507 14.7831H341.847C341.897 16.4331 342.997 17.1531 344.517 17.1531C346.047 17.1531 346.927 16.2731 346.927 15.0431C346.927 14.0831 346.427 13.5231 345.697 13.2831V13.2431C346.197 13.0731 346.797 12.5631 346.797 11.6031C346.797 10.5031 345.967 9.62314 344.427 9.62314C342.937 9.62314 341.997 10.4131 341.937 11.8531ZM348.192 14.9531C348.272 16.0731 349.042 17.1231 350.632 17.1231C352.592 17.1231 353.172 15.7431 353.172 13.2531C353.172 11.0331 352.592 9.62314 350.512 9.62314C348.962 9.62314 348.002 10.5831 348.002 12.0631C348.002 13.6131 348.962 14.3931 350.212 14.3931C350.832 14.3931 351.372 14.1531 351.662 13.7431C351.662 15.1331 351.412 15.7431 350.692 15.7431C350.162 15.7431 349.872 15.4631 349.772 14.9531H348.192ZM350.602 13.0431C349.932 13.0431 349.612 12.6331 349.612 12.0831C349.612 11.4731 349.972 11.0931 350.562 11.0931C351.142 11.0931 351.522 11.4431 351.522 12.0931C351.522 12.6831 351.162 13.0431 350.602 13.0431ZM353.944 11.6331C353.944 12.7431 354.664 13.3231 355.614 13.3231C356.564 13.3231 357.274 12.7431 357.274 11.6331C357.274 10.5231 356.564 9.94314 355.614 9.94314C354.664 9.94314 353.944 10.5231 353.944 11.6331ZM355.604 10.9431C355.904 10.9431 356.094 11.1531 356.094 11.6331C356.094 12.1031 355.904 12.3131 355.604 12.3131C355.304 12.3131 355.124 12.1031 355.124 11.6331C355.124 11.1531 355.304 10.9431 355.604 10.9431ZM355.234 17.0931H356.884L360.734 10.0531H359.084L355.234 17.0931ZM358.704 15.5131C358.704 16.6231 359.414 17.2031 360.364 17.2031C361.314 17.2031 362.024 16.6231 362.024 15.5131C362.024 14.3931 361.314 13.8231 360.364 13.8231C359.414 13.8231 358.704 14.3931 358.704 15.5131ZM360.354 14.8231C360.654 14.8231 360.844 15.0431 360.844 15.5131C360.844 15.9831 360.654 16.1931 360.354 16.1931C360.054 16.1931 359.874 15.9831 359.874 15.5131C359.874 15.0431 360.054 14.8231 360.354 14.8231Z" fill="#4FC826"/>
<path d="M326.564 16.25C327.455 16.25 327.901 15.1729 327.271 14.5429L324.028 11.3003C323.638 10.9097 323.005 10.9097 322.614 11.3003L319.371 14.5429C318.742 15.1729 319.188 16.25 320.079 16.25L326.564 16.25Z" fill="#4FC826"/>
<rect x="309.5" y="2.5" width="61" height="23" rx="11.5" stroke="#224F13"/>
<path d="M16.8802 35.4262V241.984" stroke="#3C3C3C" stroke-width="0.739798"/>
<path d="M105.514 35.4262V241.984" stroke="#3C3C3C" stroke-width="0.739798"/>
<path d="M194.148 35.4262V241.984" stroke="#3C3C3C" stroke-width="0.739798"/>
<path d="M282.043 35.4262V241.984" stroke="#3C3C3C" stroke-width="0.739798"/>
<path d="M371.415 35.4262V241.984" stroke="#3C3C3C" stroke-width="0.739798"/>
<path d="M17.2495 242.352H371.046" stroke="#3C3C3C" stroke-width="0.739798"/>
<path d="M17.2495 212.844H371.046" stroke="#3C3C3C" stroke-width="0.739798"/>
<path d="M17.2495 183.336H371.046" stroke="#3C3C3C" stroke-width="0.739798"/>
<path d="M17.2495 153.828H371.046" stroke="#3C3C3C" stroke-width="0.739798"/>
<path d="M17.2495 124.32H371.046" stroke="#3C3C3C" stroke-width="0.739798"/>
<path d="M17.2495 94.8115H371.046" stroke="#3C3C3C" stroke-width="0.739798"/>
<path d="M17.2495 65.3033H371.046" stroke="#3C3C3C" stroke-width="0.739798"/>
<path d="M17.2495 35.0574H371.046" stroke="#3C3C3C" stroke-width="0.739798"/>
<path d="M17.2495 242.352H371.046" stroke="#3C3C3C" stroke-width="0.739798"/>
<path d="M16.8802 35.4262V241.984" stroke="#3C3C3C" stroke-width="0.739798"/>
<path d="M1.98076 244.557C2.00484 244.112 2.09635 243.724 2.25529 243.394C2.41664 243.064 2.72971 242.764 3.19449 242.495L3.88805 242.094C4.1987 241.913 4.41665 241.759 4.54187 241.631C4.73934 241.432 4.83808 241.203 4.83808 240.945C4.83808 240.644 4.74777 240.406 4.56716 240.23C4.38654 240.052 4.14572 239.963 3.8447 239.963C3.39918 239.963 3.09093 240.131 2.91995 240.468C2.82844 240.649 2.77787 240.899 2.76824 241.22H2.10719C2.11441 240.769 2.19749 240.402 2.35644 240.118C2.63819 239.617 3.13549 239.367 3.84831 239.367C4.44073 239.367 4.873 239.527 5.14513 239.847C5.41966 240.167 5.55693 240.524 5.55693 240.916C5.55693 241.33 5.41123 241.684 5.11984 241.978C4.95127 242.149 4.64904 242.356 4.21315 242.6L3.71827 242.874C3.48227 243.004 3.29684 243.128 3.16198 243.246C2.92116 243.456 2.76944 243.688 2.70683 243.943H5.53164V244.557H1.98076ZM7.86879 239.385C8.53827 239.385 9.02232 239.66 9.32094 240.212C9.55212 240.638 9.66772 241.222 9.66772 241.964C9.66772 242.667 9.56296 243.249 9.35345 243.708C9.05001 244.368 8.55393 244.698 7.86518 244.698C7.24387 244.698 6.78149 244.429 6.47806 243.889C6.2252 243.439 6.09877 242.834 6.09877 242.076C6.09877 241.488 6.17463 240.984 6.32635 240.562C6.61051 239.777 7.12466 239.385 7.86879 239.385ZM7.86157 244.106C8.19872 244.106 8.46723 243.957 8.66711 243.658C8.86699 243.359 8.96693 242.803 8.96693 241.989C8.96693 241.401 8.89469 240.919 8.75019 240.541C8.6057 240.16 8.32515 239.97 7.90853 239.97C7.52563 239.97 7.24507 240.15 7.06687 240.512C6.89107 240.87 6.80317 241.4 6.80317 242.101C6.80317 242.628 6.85976 243.052 6.97295 243.373C7.14634 243.861 7.44254 244.106 7.86157 244.106Z" fill="#D4D4D4"/>
<path d="M3.67131 215.19C3.05963 215.19 2.61532 215.023 2.33837 214.688C2.06384 214.351 1.92657 213.941 1.92657 213.46H2.60568C2.63458 213.795 2.69719 214.038 2.79352 214.189C2.9621 214.462 3.26673 214.598 3.70743 214.598C4.0494 214.598 4.32393 214.506 4.53104 214.323C4.73814 214.14 4.84169 213.904 4.84169 213.615C4.84169 213.259 4.73212 213.009 4.51297 212.867C4.29624 212.725 3.99401 212.654 3.60629 212.654C3.56294 212.654 3.51839 212.655 3.47263 212.658C3.42929 212.658 3.38473 212.659 3.33898 212.661V212.087C3.40641 212.094 3.463 212.099 3.50876 212.102C3.55451 212.104 3.60388 212.105 3.65686 212.105C3.90009 212.105 4.09997 212.067 4.2565 211.99C4.53104 211.855 4.6683 211.614 4.6683 211.267C4.6683 211.009 4.57679 210.811 4.39377 210.671C4.21075 210.531 3.99762 210.462 3.75439 210.462C3.32092 210.462 3.0211 210.606 2.85493 210.895C2.76342 211.054 2.71164 211.28 2.6996 211.574H2.05661C2.05661 211.189 2.13368 210.861 2.2878 210.592C2.5527 210.11 3.01869 209.869 3.68576 209.869C4.21315 209.869 4.62134 209.987 4.91033 210.223C5.19931 210.457 5.3438 210.796 5.3438 211.242C5.3438 211.56 5.25831 211.817 5.08733 212.015C4.98137 212.138 4.8441 212.234 4.67553 212.304C4.94765 212.379 5.15957 212.523 5.31129 212.737C5.46542 212.949 5.54248 213.209 5.54248 213.518C5.54248 214.011 5.37992 214.413 5.05482 214.724C4.72971 215.035 4.26854 215.19 3.67131 215.19ZM7.86879 209.876C8.53827 209.876 9.02232 210.152 9.32094 210.704C9.55212 211.13 9.66772 211.714 9.66772 212.456C9.66772 213.159 9.56296 213.74 9.35345 214.2C9.05001 214.86 8.55393 215.19 7.86518 215.19C7.24387 215.19 6.78149 214.92 6.47806 214.381C6.2252 213.931 6.09877 213.326 6.09877 212.568C6.09877 211.98 6.17463 211.475 6.32635 211.054C6.61051 210.269 7.12466 209.876 7.86879 209.876ZM7.86157 214.598C8.19872 214.598 8.46723 214.448 8.66711 214.15C8.86699 213.851 8.96693 213.295 8.96693 212.481C8.96693 211.893 8.89469 211.41 8.75019 211.032C8.6057 210.652 8.32515 210.462 7.90853 210.462C7.52563 210.462 7.24507 210.642 7.06687 211.003C6.89107 211.362 6.80317 211.892 6.80317 212.593C6.80317 213.12 6.85976 213.544 6.97295 213.864C7.14634 214.353 7.44254 214.598 7.86157 214.598Z" fill="#D4D4D4"/>
<path d="M4.19509 183.71V181.365L2.53705 183.71H4.19509ZM4.20593 185.541V184.277H1.93741V183.641L4.30707 180.354H4.85614V183.71H5.61834V184.277H4.85614V185.541H4.20593ZM7.86879 180.368C8.53827 180.368 9.02232 180.644 9.32094 181.195C9.55212 181.622 9.66772 182.206 9.66772 182.947C9.66772 183.651 9.56296 184.232 9.35345 184.692C9.05001 185.352 8.55393 185.682 7.86518 185.682C7.24387 185.682 6.78149 185.412 6.47806 184.873C6.2252 184.422 6.09877 183.818 6.09877 183.059C6.09877 182.472 6.17463 181.967 6.32635 181.546C6.61051 180.761 7.12466 180.368 7.86879 180.368ZM7.86157 185.089C8.19872 185.089 8.46723 184.94 8.66711 184.642C8.86699 184.343 8.96693 183.787 8.96693 182.973C8.96693 182.385 8.89469 181.902 8.75019 181.524C8.6057 181.144 8.32515 180.953 7.90853 180.953C7.52563 180.953 7.24507 181.134 7.06687 181.495C6.89107 181.854 6.80317 182.384 6.80317 183.085C6.80317 183.612 6.85976 184.036 6.97295 184.356C7.14634 184.845 7.44254 185.089 7.86157 185.089Z" fill="#D4D4D4"/>
<path d="M2.66348 154.714C2.70683 155.085 2.87901 155.342 3.18004 155.484C3.33416 155.556 3.51237 155.592 3.71466 155.592C4.09997 155.592 4.38534 155.469 4.57077 155.224C4.7562 154.978 4.84892 154.706 4.84892 154.407C4.84892 154.046 4.73814 153.767 4.51659 153.569C4.29744 153.372 4.03374 153.273 3.72549 153.273C3.50153 153.273 3.30888 153.316 3.14753 153.403C2.98859 153.49 2.85252 153.61 2.73934 153.764L2.17582 153.732L2.56956 150.947H5.25711V151.575H3.05722L2.83687 153.013C2.95728 152.921 3.07167 152.853 3.18004 152.807C3.37269 152.728 3.59545 152.688 3.84831 152.688C4.32273 152.688 4.7249 152.841 5.05482 153.147C5.38474 153.452 5.5497 153.84 5.5497 154.31C5.5497 154.799 5.39799 155.23 5.09455 155.603C4.79353 155.976 4.31189 156.163 3.64964 156.163C3.2282 156.163 2.85493 156.045 2.52983 155.809C2.20713 155.57 2.02651 155.206 1.98798 154.714H2.66348ZM7.86879 150.86C8.53827 150.86 9.02232 151.136 9.32094 151.687C9.55212 152.113 9.66772 152.697 9.66772 153.439C9.66772 154.142 9.56296 154.724 9.35345 155.184C9.05001 155.844 8.55393 156.174 7.86518 156.174C7.24387 156.174 6.78149 155.904 6.47806 155.365C6.2252 154.914 6.09877 154.31 6.09877 153.551C6.09877 152.964 6.17463 152.459 6.32635 152.038C6.61051 151.253 7.12466 150.86 7.86879 150.86ZM7.86157 155.581C8.19872 155.581 8.46723 155.432 8.66711 155.133C8.86699 154.835 8.96693 154.278 8.96693 153.464C8.96693 152.877 8.89469 152.394 8.75019 152.016C8.6057 151.635 8.32515 151.445 7.90853 151.445C7.52563 151.445 7.24507 151.626 7.06687 151.987C6.89107 152.346 6.80317 152.876 6.80317 153.576C6.80317 154.104 6.85976 154.528 6.97295 154.848C7.14634 155.337 7.44254 155.581 7.86157 155.581Z" fill="#D4D4D4"/>
<path d="M3.91333 121.33C4.4913 121.33 4.89347 121.481 5.11984 121.782C5.34862 122.08 5.46301 122.389 5.46301 122.706H4.82002C4.78149 122.502 4.72008 122.342 4.63579 122.226C4.47926 122.009 4.24205 121.901 3.92417 121.901C3.56053 121.901 3.27155 122.069 3.05722 122.407C2.84289 122.741 2.72369 123.222 2.6996 123.848C2.84891 123.629 3.03675 123.465 3.26312 123.357C3.47023 123.26 3.70141 123.212 3.95668 123.212C4.39016 123.212 4.76824 123.351 5.09094 123.628C5.41364 123.904 5.57499 124.317 5.57499 124.867C5.57499 125.336 5.42207 125.753 5.11623 126.116C4.81039 126.478 4.3745 126.658 3.80858 126.658C3.32453 126.658 2.90671 126.475 2.55511 126.109C2.20351 125.741 2.02772 125.122 2.02772 124.252C2.02772 123.609 2.10598 123.064 2.26252 122.616C2.56354 121.759 3.11381 121.33 3.91333 121.33ZM3.86637 126.08C4.20834 126.08 4.46361 125.966 4.63218 125.737C4.80316 125.506 4.88865 125.234 4.88865 124.921C4.88865 124.656 4.81279 124.404 4.66108 124.166C4.50936 123.925 4.23362 123.805 3.83386 123.805C3.55451 123.805 3.30888 123.897 3.09696 124.083C2.88744 124.268 2.78269 124.547 2.78269 124.921C2.78269 125.248 2.87781 125.524 3.06806 125.748C3.26071 125.97 3.52682 126.08 3.86637 126.08ZM7.86879 121.352C8.53827 121.352 9.02232 121.628 9.32094 122.179C9.55212 122.605 9.66772 123.189 9.66772 123.931C9.66772 124.634 9.56296 125.216 9.35345 125.676C9.05001 126.336 8.55393 126.665 7.86518 126.665C7.24387 126.665 6.78149 126.396 6.47806 125.856C6.2252 125.406 6.09877 124.802 6.09877 124.043C6.09877 123.455 6.17463 122.951 6.32635 122.529C6.61051 121.744 7.12466 121.352 7.86879 121.352ZM7.86157 126.073C8.19872 126.073 8.46723 125.924 8.66711 125.625C8.86699 125.327 8.96693 124.77 8.96693 123.956C8.96693 123.369 8.89469 122.886 8.75019 122.508C8.6057 122.127 8.32515 121.937 7.90853 121.937C7.52563 121.937 7.24507 122.118 7.06687 122.479C6.89107 122.838 6.80317 123.367 6.80317 124.068C6.80317 124.596 6.85976 125.019 6.97295 125.34C7.14634 125.829 7.44254 126.073 7.86157 126.073Z" fill="#D4D4D4"/>
<path d="M5.61834 91.9303V92.4974C5.45217 92.6588 5.23062 92.9393 4.95367 93.3391C4.67914 93.7389 4.43591 94.1699 4.22399 94.6323C4.01448 95.0826 3.85554 95.4932 3.74717 95.8641C3.67733 96.1025 3.58702 96.4866 3.47625 97.0164H2.7574C2.92116 96.0291 3.28239 95.0465 3.84109 94.0688C4.17101 93.4956 4.51779 93.0008 4.88143 92.5841H2.02049V91.9303H5.61834ZM7.86879 91.8436C8.53827 91.8436 9.02232 92.1194 9.32094 92.6708C9.55212 93.0971 9.66772 93.6811 9.66772 94.4228C9.66772 95.126 9.56296 95.7076 9.35345 96.1675C9.05001 96.8274 8.55393 97.1573 7.86518 97.1573C7.24387 97.1573 6.78149 96.8876 6.47806 96.3481C6.2252 95.8978 6.09877 95.2934 6.09877 94.5348C6.09877 93.9472 6.17463 93.4427 6.32635 93.0212C6.61051 92.2362 7.12466 91.8436 7.86879 91.8436ZM7.86157 96.5649C8.19872 96.5649 8.46723 96.4156 8.66711 96.117C8.86699 95.8183 8.96693 95.262 8.96693 94.4481C8.96693 93.8605 8.89469 93.3776 8.75019 92.9995C8.6057 92.6191 8.32515 92.4288 7.90853 92.4288C7.52563 92.4288 7.24507 92.6094 7.06687 92.9706C6.89107 93.3295 6.80317 93.8593 6.80317 94.5601C6.80317 95.0875 6.85976 95.5113 6.97295 95.8316C7.14634 96.3204 7.44254 96.5649 7.86157 96.5649Z" fill="#D4D4D4"/>
<path d="M3.76162 64.5028C4.04819 64.5028 4.27215 64.4233 4.4335 64.2643C4.59485 64.103 4.67553 63.9115 4.67553 63.69C4.67553 63.4973 4.59847 63.3203 4.44434 63.159C4.29022 62.9976 4.05542 62.917 3.73994 62.917C3.42688 62.917 3.20051 62.9976 3.06083 63.159C2.92116 63.3203 2.85132 63.5094 2.85132 63.7261C2.85132 63.9693 2.94163 64.1596 3.12224 64.2968C3.30286 64.4341 3.51598 64.5028 3.76162 64.5028ZM3.80135 67.0639C4.10238 67.0639 4.35163 66.9832 4.5491 66.8218C4.74898 66.6581 4.84892 66.4149 4.84892 66.0922C4.84892 65.7574 4.74657 65.5034 4.54187 65.33C4.33718 65.1566 4.07468 65.0699 3.75439 65.0699C3.44374 65.0699 3.18967 65.159 2.9922 65.3372C2.79713 65.513 2.6996 65.7574 2.6996 66.0705C2.6996 66.3402 2.78871 66.5738 2.96691 66.7713C3.14753 66.9663 3.42567 67.0639 3.80135 67.0639ZM2.87661 64.752C2.69599 64.6749 2.55511 64.5846 2.45397 64.4811C2.26372 64.2884 2.1686 64.038 2.1686 63.7297C2.1686 63.3444 2.30827 63.0133 2.58762 62.7363C2.86697 62.4594 3.26312 62.3209 3.77607 62.3209C4.27215 62.3209 4.66108 62.4522 4.94284 62.7147C5.2246 62.9748 5.36548 63.2794 5.36548 63.6286C5.36548 63.9513 5.2836 64.2126 5.11984 64.4124C5.02833 64.5256 4.88624 64.6364 4.69359 64.7448C4.90792 64.8435 5.07649 64.9567 5.19931 65.0843C5.42809 65.3251 5.54248 65.6382 5.54248 66.0235C5.54248 66.4787 5.38956 66.8652 5.08372 67.1831C4.77788 67.4985 4.3456 67.6563 3.7869 67.6563C3.28359 67.6563 2.85734 67.5202 2.50815 67.2481C2.16137 66.9736 1.98798 66.5762 1.98798 66.056C1.98798 65.7502 2.06264 65.4865 2.21194 65.2649C2.36125 65.041 2.58281 64.87 2.87661 64.752ZM7.86879 62.3354C8.53827 62.3354 9.02232 62.6111 9.32094 63.1626C9.55212 63.5888 9.66772 64.1728 9.66772 64.9146C9.66772 65.6177 9.56296 66.1993 9.35345 66.6593C9.05001 67.3191 8.55393 67.6491 7.86518 67.6491C7.24387 67.6491 6.78149 67.3793 6.47806 66.8399C6.2252 66.3896 6.09877 65.7851 6.09877 65.0265C6.09877 64.4389 6.17463 63.9344 6.32635 63.513C6.61051 62.7279 7.12466 62.3354 7.86879 62.3354ZM7.86157 67.0566C8.19872 67.0566 8.46723 66.9073 8.66711 66.6087C8.86699 66.3101 8.96693 65.7538 8.96693 64.9398C8.96693 64.3522 8.89469 63.8694 8.75019 63.4913C8.6057 63.1108 8.32515 62.9206 7.90853 62.9206C7.52563 62.9206 7.24507 63.1012 7.06687 63.4624C6.89107 63.8212 6.80317 64.351 6.80317 65.0518C6.80317 65.5792 6.85976 66.0031 6.97295 66.3233C7.14634 66.8122 7.44254 67.0566 7.86157 67.0566Z" fill="#D4D4D4"/>
<path d="M2.73211 36.7501C2.75138 37.109 2.88985 37.357 3.14753 37.4943C3.27998 37.5665 3.42929 37.6026 3.59545 37.6026C3.90611 37.6026 4.17101 37.4738 4.39016 37.2161C4.6093 36.956 4.76463 36.4299 4.85614 35.6376C4.71165 35.8663 4.53224 36.0277 4.31791 36.1216C4.10599 36.2131 3.87721 36.2589 3.63157 36.2589C3.13308 36.2589 2.73813 36.1035 2.44674 35.7929C2.15776 35.4822 2.01327 35.0825 2.01327 34.5936C2.01327 34.124 2.15655 33.711 2.44313 33.3546C2.72971 32.9982 3.15234 32.82 3.71105 32.82C4.46481 32.82 4.98498 33.1595 5.27156 33.8386C5.4305 34.2119 5.50997 34.6791 5.50997 35.2402C5.50997 35.8736 5.41484 36.4347 5.2246 36.9235C4.90912 37.7375 4.3745 38.1445 3.62074 38.1445C3.11502 38.1445 2.73091 38.012 2.46842 37.7471C2.20592 37.4822 2.07468 37.1499 2.07468 36.7501H2.73211ZM3.71827 35.6881C3.97595 35.6881 4.21075 35.6038 4.42267 35.4353C4.637 35.2643 4.74416 34.9669 4.74416 34.543C4.74416 34.1625 4.64783 33.8796 4.45518 33.6941C4.26493 33.5063 4.0217 33.4124 3.72549 33.4124C3.40761 33.4124 3.15475 33.5196 2.96691 33.7339C2.78148 33.9458 2.68877 34.23 2.68877 34.5864C2.68877 34.9235 2.77064 35.192 2.9344 35.3919C3.09816 35.5894 3.35945 35.6881 3.71827 35.6881ZM7.86879 32.8272C8.53827 32.8272 9.02232 33.1029 9.32094 33.6544C9.55212 34.0807 9.66772 34.6646 9.66772 35.4064C9.66772 36.1096 9.56296 36.6911 9.35345 37.1511C9.05001 37.811 8.55393 38.1409 7.86518 38.1409C7.24387 38.1409 6.78149 37.8712 6.47806 37.3317C6.2252 36.8814 6.09877 36.2769 6.09877 35.5184C6.09877 34.9308 6.17463 34.4262 6.32635 34.0048C6.61051 33.2197 7.12466 32.8272 7.86879 32.8272ZM7.86157 37.5485C8.19872 37.5485 8.46723 37.3992 8.66711 37.1005C8.86699 36.8019 8.96693 36.2456 8.96693 35.4317C8.96693 34.8441 8.89469 34.3612 8.75019 33.9831C8.6057 33.6026 8.32515 33.4124 7.90853 33.4124C7.52563 33.4124 7.24507 33.593 7.06687 33.9542C6.89107 34.3131 6.80317 34.8429 6.80317 35.5436C6.80317 36.071 6.85976 36.4949 6.97295 36.8152C7.14634 37.304 7.44254 37.5485 7.86157 37.5485Z" fill="#D4D4D4"/>
<path d="M17.2495 85.5901C17.2495 85.5901 70.3189 94.4426 105.699 109.197C141.078 123.951 158.768 138.705 194.148 159.361C229.527 180.016 247.217 212.475 282.597 212.475C317.976 212.475 371.046 61.9836 371.046 61.9836" stroke="#FBA81A" stroke-width="1.4796"/>
<path d="M17.2495 88.541C16.4661 88.541 15.7147 88.2302 15.1606 87.677C14.6066 87.1237 14.2952 86.3734 14.295 85.5909C14.2948 84.8084 14.6058 84.0579 15.1596 83.5044C15.7134 82.9509 16.4646 82.6397 17.248 82.6393C18.0315 82.639 18.783 82.9494 19.3373 83.5023C19.8916 84.0553 20.2034 84.8055 20.204 85.588C20.2045 86.3704 19.8939 87.1211 19.3404 87.6749C18.7869 88.2287 18.0359 88.5402 17.2525 88.541H17.2495Z" fill="#FBA81A"/>
<path d="M105.145 112.148C104.361 112.148 103.61 111.837 103.056 111.284C102.502 110.73 102.19 109.98 102.19 109.197C102.19 108.415 102.501 107.664 103.055 107.111C103.608 106.557 104.36 106.246 105.143 106.246C105.927 106.246 106.678 106.556 107.232 107.109C107.787 107.662 108.098 108.412 108.099 109.195C108.1 109.977 107.789 110.728 107.236 111.281C106.682 111.835 105.931 112.147 105.148 112.148H105.145Z" fill="#FBA81A"/>
<path d="M193.778 162.311C192.995 162.311 192.243 162.001 191.689 161.447C191.135 160.894 190.824 160.144 190.824 159.361C190.824 158.579 191.135 157.828 191.688 157.275C192.242 156.721 192.993 156.41 193.777 156.41C194.56 156.409 195.312 156.72 195.866 157.273C196.42 157.826 196.732 158.576 196.733 159.358C196.733 160.141 196.423 160.892 195.869 161.445C195.316 161.999 194.565 162.311 193.781 162.311H193.778Z" fill="#FBA81A"/>
<path d="M282.412 215.426C281.628 215.426 280.877 215.115 280.323 214.562C279.769 214.009 279.458 213.259 279.457 212.476C279.457 211.694 279.768 210.943 280.322 210.39C280.876 209.836 281.627 209.525 282.41 209.525C283.194 209.524 283.945 209.835 284.5 210.388C285.054 210.941 285.366 211.691 285.366 212.473C285.367 213.256 285.056 214.006 284.503 214.56C283.949 215.114 283.198 215.425 282.415 215.426H282.412Z" fill="#FBA81A"/>
<path d="M371.046 64.9344C370.262 64.9344 369.511 64.6236 368.957 64.0704C368.403 63.5172 368.091 62.7668 368.091 61.9843C368.091 61.2019 368.402 60.4513 368.956 59.8978C369.509 59.3443 370.261 59.0332 371.044 59.0328C371.827 59.0324 372.579 59.3428 373.133 59.8957C373.688 60.4487 373.999 61.1989 374 61.9814C374.001 62.7639 373.69 63.5145 373.136 64.0683C372.583 64.6221 371.832 64.9336 371.048 64.9344L371.046 64.9344Z" fill="#FBA81A"/>
</svg>
