<svg width="15" height="19" viewBox="0 0 15 19" fill="none" xmlns="http://www.w3.org/2000/svg">
<path d="M4.27026 3.13495V12.5404C4.27026 12.9561 4.43542 13.3548 4.72939 13.6488C5.02337 13.9428 5.42209 14.1079 5.83783 14.1079H12.1081C12.5238 14.1079 12.9226 13.9428 13.2165 13.6488C13.5105 13.3548 13.6757 12.9561 13.6757 12.5404V5.67598C13.6756 5.46715 13.6339 5.26042 13.5529 5.06795C13.4718 4.87548 13.3532 4.70114 13.2038 4.55517L10.6056 2.01414C10.3127 1.72779 9.91944 1.56743 9.50986 1.56738H5.83783C5.42209 1.56738 5.02337 1.73254 4.72939 2.02651C4.43542 2.32049 4.27026 2.71921 4.27026 3.13495V3.13495Z" stroke="#FBA81A" stroke-width="1.56757" stroke-linecap="round" stroke-linejoin="round"/>
<path d="M10.5405 14.1079V15.6755C10.5405 16.0913 10.3754 16.49 10.0814 16.784C9.78743 17.0779 9.38871 17.2431 8.97297 17.2431H2.7027C2.28695 17.2431 1.88824 17.0779 1.59426 16.784C1.30029 16.49 1.13513 16.0913 1.13513 15.6755V7.0539C1.13513 6.63815 1.30029 6.23943 1.59426 5.94546C1.88824 5.65148 2.28695 5.48633 2.7027 5.48633H4.27027" stroke="#FBA81A" stroke-width="1.56757" stroke-linecap="round" stroke-linejoin="round"/>
</svg>
