<svg width="32" height="33" viewBox="0 0 32 33" fill="none" xmlns="http://www.w3.org/2000/svg">
<rect y="0.757202" width="32" height="32" rx="16" fill="#7D1AFB"/>
<path d="M12.8301 13.7284C14.3516 13.7284 15.604 12.4667 15.604 10.9637C15.604 9.45154 14.3516 8.18982 12.8301 8.18982C11.3179 8.18982 10.0654 9.45154 10.0654 10.9637C10.0654 12.4574 11.3086 13.7284 12.8301 13.7284ZM19.6396 13.7284C21.1519 13.7284 22.4043 12.4667 22.4043 10.9637C22.4043 9.45154 21.1519 8.18982 19.6396 8.18982C18.1182 8.18982 16.8657 9.45154 16.8657 10.9637C16.8657 12.4667 18.1182 13.7284 19.6396 13.7284ZM9.43457 19.8329C10.9468 19.8329 12.2085 18.5712 12.2085 17.059C12.2085 15.5468 10.9468 14.285 9.43457 14.285C7.92236 14.285 6.66064 15.5468 6.66064 17.059C6.66064 18.5619 7.90381 19.8329 9.43457 19.8329ZM16.2349 19.8329C17.7471 19.8329 19.0088 18.5712 19.0088 17.059C19.0088 15.5468 17.7471 14.285 16.2349 14.285C14.7227 14.285 13.4609 15.5468 13.4609 17.059C13.4609 18.5712 14.7227 19.8329 16.2349 19.8329ZM23.0352 19.8329C24.5474 19.8329 25.8091 18.5712 25.8091 17.059C25.8091 15.5468 24.5474 14.285 23.0352 14.285C21.5229 14.285 20.2612 15.5468 20.2612 17.059C20.2612 18.5712 21.5229 19.8329 23.0352 19.8329ZM12.8301 25.9188C14.3516 25.9188 15.604 24.6664 15.604 23.1542C15.604 21.642 14.3516 20.3895 12.8301 20.3895C11.3179 20.3895 10.0654 21.642 10.0654 23.1542C10.0654 24.6571 11.3086 25.9188 12.8301 25.9188ZM19.6396 25.9188C21.1519 25.9188 22.4043 24.6664 22.4043 23.1542C22.4043 21.642 21.1519 20.3895 19.6396 20.3895C18.1182 20.3895 16.8657 21.642 16.8657 23.1542C16.8657 24.6664 18.1182 25.9188 19.6396 25.9188Z" fill="white"/>
</svg>
