<svg width="9" height="6" viewBox="0 0 9 6" fill="none" xmlns="http://www.w3.org/2000/svg">
<path d="M7.72812 0.656855C8.61902 0.656854 9.06519 1.734 8.43522 2.36396L5.19258 5.6066C4.80206 5.99713 4.16889 5.99713 3.77837 5.6066L0.535726 2.36396C-0.0942385 1.734 0.351928 0.656854 1.24283 0.656854L7.72812 0.656855Z" fill="#000000"/>
</svg>
