<svg width="32" height="32" viewBox="0 0 32 32" fill="none" xmlns="http://www.w3.org/2000/svg">
<g clip-path="url(#clip0_3019_5570)">
<rect width="32" height="32" rx="16" fill="#FBA81A"/>
<rect x="15" y="15" width="20" height="19" fill="#2D880E" stroke="black" stroke-width="2"/>
<path d="M10.135 15.957H10.839V15.066C12.577 14.989 13.523 13.944 13.523 12.756C13.523 11.051 12.016 10.732 10.839 10.402V8.697C11.147 8.807 11.356 9.06 11.4 9.467H13.413C13.314 8.07 12.346 7.3 10.839 7.179V6.288H10.135V7.179C8.639 7.278 7.484 8.092 7.484 9.467C7.484 11.194 8.958 11.524 10.135 11.832V13.57C9.761 13.449 9.541 13.174 9.497 12.723H7.495C7.55 14.142 8.639 14.923 10.135 15.055V15.957ZM11.554 12.822C11.554 13.229 11.279 13.526 10.839 13.603V12.041C11.268 12.206 11.554 12.426 11.554 12.822ZM9.475 9.379C9.475 8.95 9.728 8.708 10.135 8.642V10.171C9.739 9.995 9.475 9.764 9.475 9.379Z" fill="white"/>
<path d="M18.341 19.994C18.341 21.215 19.133 21.853 20.178 21.853C21.223 21.853 22.004 21.215 22.004 19.994C22.004 18.773 21.223 18.135 20.178 18.135C19.133 18.135 18.341 18.773 18.341 19.994ZM20.167 19.235C20.497 19.235 20.706 19.466 20.706 19.994C20.706 20.511 20.497 20.742 20.167 20.742C19.837 20.742 19.639 20.511 19.639 19.994C19.639 19.466 19.837 19.235 20.167 19.235ZM19.76 26H21.575L25.81 18.256H23.995L19.76 26ZM23.577 24.262C23.577 25.483 24.358 26.121 25.403 26.121C26.448 26.121 27.229 25.483 27.229 24.262C27.229 23.03 26.448 22.403 25.403 22.403C24.358 22.403 23.577 23.03 23.577 24.262ZM25.392 23.503C25.722 23.503 25.931 23.745 25.931 24.262C25.931 24.779 25.722 25.01 25.392 25.01C25.062 25.01 24.864 24.779 24.864 24.262C24.864 23.745 25.062 23.503 25.392 23.503Z" fill="white"/>
</g>
<defs>
<clipPath id="clip0_3019_5570">
<rect width="32" height="32" rx="16" fill="white"/>
</clipPath>
</defs>
</svg>
