<svg width="20" height="22" viewBox="0 0 20 22" fill="none" xmlns="http://www.w3.org/2000/svg">
<path d="M1.19802 20.2471C1.19802 20.6888 1.55494 21.0457 1.99671 21.0457H9.13494V11.6612H1.19802V20.2471ZM10.8321 21.0457H17.9704C18.4121 21.0457 18.7691 20.6888 18.7691 20.2471V11.6612H10.8321V21.0457ZM19.1684 5.6711H15.4845C15.8239 5.13698 16.0236 4.50302 16.0236 3.82414C16.0236 1.92477 14.4786 0.379822 12.5793 0.379822C11.546 0.379822 10.615 0.839064 9.98354 1.56287C9.35208 0.839064 8.42112 0.379822 7.38782 0.379822C5.48845 0.379822 3.9435 1.92477 3.9435 3.82414C3.9435 4.50302 4.14067 5.13698 4.48261 5.6711H0.798683C0.356912 5.6711 0 6.02801 0 6.46978V9.96402H9.13494V5.6711H10.8321V9.96402H19.9671V6.46978C19.9671 6.02801 19.6102 5.6711 19.1684 5.6711ZM9.13494 5.57126H7.38782C6.42441 5.57126 5.6407 4.78755 5.6407 3.82414C5.6407 2.86073 6.42441 2.07702 7.38782 2.07702C8.35123 2.07702 9.13494 2.86073 9.13494 3.82414V5.57126ZM12.5793 5.57126H10.8321V3.82414C10.8321 2.86073 11.6158 2.07702 12.5793 2.07702C13.5427 2.07702 14.3264 2.86073 14.3264 3.82414C14.3264 4.78755 13.5427 5.57126 12.5793 5.57126Z" fill="#FBA81A"/>
</svg>
