<svg width="8" height="14" viewBox="0 0 8 14" fill="none" xmlns="http://www.w3.org/2000/svg">
<path opacity="0.3" fill-rule="evenodd" clip-rule="evenodd" d="M7.99988 6.99988L6.83323 5.83323L6.83318 5.83327L1.58328 0.583375C1.26112 0.261212 0.738788 0.261212 0.416625 0.583375C0.0944621 0.905538 0.0944624 1.42787 0.416625 1.75003L5.66652 6.99993L0.416624 12.2498C0.0944612 12.572 0.0944618 13.0943 0.416624 13.4165C0.738787 13.7386 1.26112 13.7386 1.58328 13.4165L6.83318 8.16658L6.83323 8.16663L7.99988 6.99998L7.99983 6.99993L7.99988 6.99988Z" fill="white"/>
</svg>
