<svg width="26" height="26" viewBox="0 0 26 26" fill="none" xmlns="http://www.w3.org/2000/svg">
<path d="M9.57437 20.5056L8.27837 21.7936C7.73545 22.328 7.00418 22.6275 6.24237 22.6275C5.48056 22.6275 4.7493 22.328 4.20637 21.7936C3.94166 21.5315 3.73153 21.2195 3.58812 20.8756C3.44471 20.5318 3.37087 20.1629 3.37087 19.7904C3.37087 19.4179 3.44471 19.049 3.58812 18.7052C3.73153 18.3613 3.94166 18.0493 4.20637 17.7872L8.97437 13.0592C9.96157 12.0784 11.8208 10.6352 13.176 11.9792C13.3218 12.1347 13.4975 12.2592 13.6925 12.3454C13.8875 12.4315 14.0979 12.4775 14.3111 12.4805C14.5243 12.4835 14.7359 12.4436 14.9333 12.3631C15.1307 12.2825 15.3098 12.163 15.46 12.0118C15.6102 11.8605 15.7284 11.6805 15.8076 11.4825C15.8867 11.2845 15.9251 11.0727 15.9205 10.8595C15.916 10.6464 15.8685 10.4363 15.781 10.2419C15.6935 10.0475 15.5677 9.87273 15.4112 9.728C13.1104 7.4432 9.70557 7.8656 6.74077 10.808L1.97277 15.5376C1.4094 16.093 0.96244 16.7552 0.658041 17.4854C0.353643 18.2157 0.197916 18.9993 0.199971 19.7904C0.198006 20.5815 0.353773 21.3651 0.658166 22.0953C0.962559 22.8255 1.40947 23.4877 1.97277 24.0432C3.10829 25.1695 4.6438 25.8001 6.24317 25.7968C7.79037 25.7968 9.33757 25.2128 10.5136 24.0432L11.8112 22.7552C11.9591 22.6089 12.0768 22.4347 12.1573 22.2428C12.2378 22.0509 12.2796 21.845 12.2804 21.6369C12.2811 21.4287 12.2408 21.2225 12.1616 21.03C12.0825 20.8376 11.9661 20.6626 11.8192 20.5152C11.5222 20.2174 11.1194 20.0492 10.6988 20.0474C10.2781 20.0456 9.87392 20.2103 9.57437 20.5056ZM24.0256 2.1312C21.5504 -0.3232 18.0912 -0.456 15.8032 1.816L14.1888 3.4192C13.8905 3.71539 13.722 4.11796 13.7205 4.53834C13.719 4.95872 13.8846 5.36248 14.1808 5.6608C14.477 5.95912 14.8795 6.12755 15.2999 6.12905C15.7203 6.13055 16.1241 5.96499 16.4224 5.6688L18.0384 4.0672C19.2224 2.8896 20.776 3.3776 21.792 4.3824C22.3296 4.9184 22.6272 5.6288 22.6272 6.3856C22.6272 7.1424 22.3296 7.8528 21.792 8.3872L16.704 13.4336C14.3776 15.7392 13.2864 14.6592 12.8208 14.1968C12.6731 14.0501 12.4979 13.934 12.3053 13.855C12.1127 13.7761 11.9065 13.7358 11.6983 13.7365C11.4902 13.7373 11.2842 13.779 11.0922 13.8594C10.9001 13.9397 10.7258 14.0571 10.5792 14.2048C10.4325 14.3525 10.3164 14.5277 10.2374 14.7203C10.1584 14.9128 10.1182 15.1191 10.1189 15.3273C10.1197 15.5354 10.1614 15.7414 10.2417 15.9334C10.3221 16.1254 10.4395 16.2997 10.5872 16.4464C11.656 17.5056 12.8752 18.0304 14.152 18.0304C15.7152 18.0304 17.368 17.2432 18.9408 15.6832L24.0288 10.6384C24.5909 10.0821 25.037 9.41975 25.341 8.68969C25.6451 7.95963 25.8011 7.17644 25.8 6.3856C25.8014 5.59418 25.6452 4.8104 25.3406 4.07996C25.036 3.34953 24.5889 2.68706 24.0256 2.1312Z" fill="#000000"/>
</svg>
