<svg width="38" height="38" viewBox="0 0 38 38" fill="none" xmlns="http://www.w3.org/2000/svg">
<rect x="0.0892944" y="0.339233" width="37.1429" height="37.1429" rx="18.5714" fill="#FB501A"/>
<path fill-rule="evenodd" clip-rule="evenodd" d="M19.1444 11.4627C18.7704 11.8367 18.7704 12.4429 19.1444 12.8169L25.2382 18.9107L19.1443 25.0047C18.7704 25.3786 18.7704 25.9849 19.1443 26.3588C19.5182 26.7328 20.1245 26.7328 20.4985 26.3588L27.9463 18.911L27.9461 18.9108L27.9464 18.9106L20.4985 11.4627C20.1246 11.0888 19.5183 11.0888 19.1444 11.4627Z" fill="white"/>
<path opacity="0.5" fill-rule="evenodd" clip-rule="evenodd" d="M12.1801 11.4627C11.8061 11.8367 11.8061 12.4429 12.1801 12.8169L18.2739 18.9107L12.18 25.0047C11.8061 25.3786 11.8061 25.9849 12.18 26.3588C12.5539 26.7328 13.1602 26.7328 13.5342 26.3588L20.982 18.911L20.9818 18.9108L20.9821 18.9106L13.5342 11.4627C13.1603 11.0888 12.554 11.0888 12.1801 11.4627Z" fill="white"/>
</svg>
