<svg width="26" height="26" viewBox="0 0 26 26" fill="none" xmlns="http://www.w3.org/2000/svg">
<path d="M15.8191 25.9167H11.1174C10.8228 25.9167 10.5371 25.8161 10.3075 25.6314C10.078 25.4468 9.91849 25.1892 9.85545 24.9014L9.32974 22.4679C8.62844 22.1607 7.96345 21.7764 7.34702 21.3222L4.97422 22.0779C4.69337 22.1674 4.39033 22.1582 4.11542 22.0518C3.84051 21.9453 3.61029 21.7481 3.46297 21.4927L1.10696 17.4227C0.961194 17.1671 0.906475 16.8696 0.95176 16.5789C0.997046 16.2882 1.13966 16.0214 1.35626 15.8223L3.19689 14.1431C3.11318 13.3825 3.11318 12.6149 3.19689 11.8543L1.35626 10.179C1.13935 9.97978 0.996546 9.71279 0.951252 9.42179C0.905959 9.13079 0.960863 8.83303 1.10696 8.57732L3.4578 4.50468C3.60512 4.24934 3.83535 4.05207 4.11025 3.94563C4.38516 3.8392 4.6882 3.82999 4.96906 3.91956L7.34186 4.67518C7.65702 4.44268 7.98511 4.22568 8.32353 4.02935C8.65032 3.84593 8.98615 3.67931 9.32974 3.53077L9.85674 1.09984C9.91948 0.812055 10.0787 0.554354 10.308 0.369466C10.5373 0.184577 10.8229 0.0836077 11.1174 0.0832977H15.8191C16.1136 0.0836077 16.3992 0.184577 16.6285 0.369466C16.8578 0.554354 17.017 0.812055 17.0798 1.09984L17.6119 3.53206C18.3123 3.84111 18.9771 4.22526 19.5946 4.67777L21.9687 3.92214C22.2494 3.83291 22.5522 3.84228 22.8268 3.9487C23.1014 4.05512 23.3314 4.2522 23.4787 4.50727L25.8295 8.5799C26.1292 9.10561 26.0259 9.77082 25.5802 10.1803L23.7396 11.8595C23.8233 12.6201 23.8233 13.3876 23.7396 14.1483L25.5802 15.8275C26.0259 16.2382 26.1292 16.9021 25.8295 17.4278L23.4787 21.5005C23.3314 21.7558 23.1011 21.9531 22.8262 22.0595C22.5513 22.166 22.2483 22.1752 21.9674 22.0856L19.5946 21.33C18.9787 21.7838 18.3141 22.1676 17.6132 22.4744L17.0798 24.9014C17.0168 25.189 16.8574 25.4464 16.6282 25.631C16.3989 25.8157 16.1135 25.9165 15.8191 25.9167ZM13.4631 7.83332C12.0928 7.83332 10.7786 8.37766 9.80969 9.3466C8.84075 10.3155 8.2964 11.6297 8.2964 13C8.2964 14.3703 8.84075 15.6845 9.80969 16.6534C10.7786 17.6223 12.0928 18.1667 13.4631 18.1667C14.8334 18.1667 16.1475 17.6223 17.1165 16.6534C18.0854 15.6845 18.6298 14.3703 18.6298 13C18.6298 11.6297 18.0854 10.3155 17.1165 9.3466C16.1475 8.37766 14.8334 7.83332 13.4631 7.83332Z" fill="#000000"/>
</svg>
