<svg width="27" height="27" viewBox="0 0 27 27" fill="none" xmlns="http://www.w3.org/2000/svg">
<path fill-rule="evenodd" clip-rule="evenodd" d="M23.7081 10.3378L25.6021 10.6591C26.4081 10.7944 26.9944 11.4877 26.9831 12.3051V14.6781C26.9831 15.4955 26.3969 16.1888 25.5908 16.3241L23.6969 16.6397C23.5052 17.271 23.2459 17.8854 22.9359 18.4773L24.052 20.0443C24.5255 20.7095 24.4466 21.617 23.8716 22.1919L22.1919 23.8717C21.8762 24.1873 21.4591 24.3621 21.0138 24.3621C20.6643 24.3621 20.3261 24.255 20.0443 24.052L18.4829 22.936C17.8967 23.246 17.2823 23.4996 16.6453 23.6969L16.324 25.5909C16.1887 26.3969 15.4954 26.9832 14.6781 26.9832H12.2994C11.482 26.9832 10.7887 26.3969 10.6534 25.5909L10.3378 23.6969C9.72338 23.5053 9.12589 23.2629 8.55658 22.9642L6.97265 24.0915C6.69081 24.2944 6.35825 24.4015 6.00877 24.4015C5.56347 24.4015 5.14635 24.2268 4.83069 23.9111L3.15094 22.2314C2.57035 21.6564 2.49708 20.7489 2.97056 20.0838L4.081 18.5393C3.76534 17.9531 3.50605 17.3387 3.30877 16.7074L1.39228 16.3804C0.586221 16.2452 0 15.5518 0 14.7345V12.3614C0 11.5441 0.586221 10.8508 1.39228 10.7155L3.26367 10.3999C3.45532 9.7629 3.70334 9.14849 4.01336 8.55664L2.88601 6.97271C2.41253 6.30758 2.49144 5.40006 3.06639 4.82511L4.75177 3.14536C5.0618 2.82971 5.48455 2.65497 5.92985 2.65497C6.27933 2.65497 6.61754 2.76207 6.89937 2.96499L8.44948 4.08106C9.0357 3.76541 9.6501 3.50612 10.2814 3.30883L10.6084 1.39234C10.7436 0.586282 11.437 6.10352e-05 12.2543 6.10352e-05H14.6273C15.4447 6.10352e-05 16.138 0.586282 16.2733 1.39234L16.5889 3.26374C17.2484 3.46102 17.8854 3.72595 18.4942 4.04724L20.0612 2.93117C20.343 2.72824 20.6756 2.62115 21.0251 2.62115C21.4704 2.62115 21.8875 2.79589 22.2031 3.11154L23.8829 4.79129C24.4635 5.36624 24.5367 6.27376 24.0633 6.93889L22.9472 8.50027C23.2572 9.08649 23.5109 9.7009 23.7081 10.3378ZM25.3484 14.8247C25.4217 14.8134 25.4724 14.7514 25.4724 14.6781H25.4781V12.3051C25.4781 12.2318 25.4273 12.1698 25.3541 12.1585L22.9866 11.7583C22.6935 11.7132 22.4511 11.4934 22.3779 11.2003C22.1637 10.3717 21.8367 9.57689 21.3971 8.83847C21.2449 8.57918 21.2562 8.25225 21.4309 8.00987L22.8232 6.05392C22.8626 5.99192 22.857 5.913 22.8063 5.86227L21.1265 4.18252C21.0871 4.14307 21.042 4.13743 21.0194 4.13743C20.9912 4.13743 20.963 4.1487 20.9349 4.16561L18.9902 5.56353C18.7422 5.73827 18.4209 5.74954 18.1616 5.59735C17.4063 5.15204 16.5946 4.81948 15.7434 4.60528C15.4503 4.532 15.2305 4.28962 15.1798 3.99088L14.7852 1.64035C14.7739 1.56708 14.7119 1.51634 14.6386 1.51634H12.2656C12.1923 1.51634 12.1303 1.56708 12.119 1.64035L11.7132 4.0247C11.6624 4.31781 11.4426 4.55455 11.1551 4.63346C10.3265 4.84766 9.53173 5.18586 8.79896 5.62553C8.53967 5.77772 8.21274 5.76645 7.96472 5.59171L6.02004 4.20507C5.9975 4.18816 5.96931 4.17689 5.93549 4.17689C5.90731 4.17689 5.86785 4.18252 5.82839 4.22198L4.14864 5.90173C4.09791 5.95246 4.09228 6.03701 4.13173 6.09338L5.53528 8.06624C5.71002 8.30862 5.72693 8.62991 5.57474 8.8892C5.14071 9.62762 4.81942 10.428 4.61086 11.2566C4.53758 11.5497 4.2952 11.7696 3.99645 11.8203L1.64593 12.2149C1.57265 12.2262 1.52192 12.2882 1.52192 12.3614V14.7345C1.52192 14.8078 1.57265 14.8698 1.64593 14.8811L4.03027 15.2869C4.32338 15.3376 4.56013 15.5575 4.63904 15.8449C4.85324 16.6735 5.19144 17.4683 5.63111 18.2011C5.7833 18.4604 5.77203 18.7873 5.59729 19.0353L4.21065 20.98C4.17119 21.042 4.17683 21.1209 4.22756 21.1717L5.90731 22.8514C5.94676 22.8909 5.99186 22.8965 6.01441 22.8965C6.04259 22.8965 6.07077 22.8852 6.09896 22.8683L8.07182 21.4648C8.20146 21.369 8.35929 21.3239 8.51148 21.3239C8.64113 21.3239 8.77641 21.3577 8.89478 21.4253C9.62192 21.8424 10.3998 22.1637 11.2058 22.3723C11.4933 22.4456 11.7132 22.6823 11.7639 22.9811L12.1585 25.3485C12.1697 25.4218 12.2317 25.4725 12.305 25.4725H14.6781C14.7514 25.4725 14.8134 25.4218 14.8246 25.3485L15.2248 22.9811C15.2699 22.688 15.4898 22.4456 15.7829 22.3723C16.6115 22.1581 17.4063 21.8312 18.1447 21.3915C18.404 21.2393 18.7309 21.2506 18.9733 21.4253L20.9292 22.8176C20.9518 22.8345 20.98 22.8458 21.0138 22.8458C21.042 22.8458 21.0814 22.8401 21.1209 22.8007L22.8006 21.1209C22.8514 21.0702 22.857 20.9857 22.8175 20.9293L21.4253 18.9677C21.2505 18.7197 21.2392 18.3984 21.3914 18.1391C21.8311 17.4007 22.158 16.6059 22.3722 15.7773C22.4455 15.4898 22.6823 15.27 22.981 15.2193L25.3484 14.8247ZM7.67161 13.4888C7.67161 10.2758 10.2814 7.66603 13.4944 7.66603C16.7073 7.66603 19.3171 10.2758 19.3171 13.4888C19.3171 16.7017 16.7073 19.3115 13.4944 19.3115C10.2814 19.3115 7.67161 16.7017 7.67161 13.4888ZM9.19353 13.4888C9.19353 15.8619 11.1213 17.7896 13.4944 17.7896C15.8674 17.7896 17.7952 15.8619 17.7952 13.4888C17.7952 11.1157 15.8674 9.18795 13.4944 9.18795C11.1213 9.18795 9.19353 11.1157 9.19353 13.4888Z" fill="#FBA81A"/>
</svg>
