<svg width="19" height="23" viewBox="0 0 19 23" fill="none" xmlns="http://www.w3.org/2000/svg">
<path d="M10.0342 22.0097L9.76446 18.7726H9.49469C6.94094 18.7726 4.77384 17.8824 2.99341 16.1019C1.21297 14.3215 0.322754 12.1544 0.322754 9.60065C0.322754 7.0469 1.21297 4.8798 2.99341 3.09936C4.77384 1.31893 6.94094 0.428711 9.49469 0.428711C10.7716 0.428711 11.9628 0.666822 13.0685 1.14304C14.1749 1.61998 15.1464 2.27641 15.983 3.11231C16.8189 3.94894 17.475 4.92008 17.9512 6.02575C18.4282 7.13214 18.6666 8.32377 18.6666 9.60065C18.6666 12.3342 17.8484 14.7844 16.2118 16.9512C14.5752 19.1186 12.516 20.8048 10.0342 22.0097ZM9.46772 15.5085C9.77345 15.5085 10.0342 15.4006 10.25 15.1847C10.4658 14.9689 10.5737 14.7082 10.5737 14.4024C10.5737 14.0967 10.4658 13.8359 10.25 13.6201C10.0342 13.4043 9.77345 13.2964 9.46772 13.2964C9.16199 13.2964 8.90122 13.4043 8.68541 13.6201C8.46959 13.8359 8.36169 14.0967 8.36169 14.4024C8.36169 14.7082 8.46959 14.9689 8.68541 15.1847C8.90122 15.4006 9.16199 15.5085 9.46772 15.5085ZM8.68541 12.0825H10.304C10.304 11.5429 10.3579 11.1653 10.4658 10.9495C10.5737 10.7337 10.9154 10.338 11.4909 9.76251C11.8147 9.43879 12.0844 9.0881 12.3002 8.71043C12.516 8.33277 12.6239 7.92812 12.6239 7.4965C12.6239 6.57931 12.3139 5.89123 11.6938 5.43227C11.073 4.97404 10.34 4.74492 9.49469 4.74492C8.70339 4.74492 8.03797 4.96504 7.49845 5.4053C6.95892 5.84627 6.58125 6.38148 6.36544 7.01093L7.87612 7.6044C7.96604 7.29867 8.13689 6.99726 8.38867 6.70016C8.64045 6.40378 9.00912 6.25559 9.49469 6.25559C9.98027 6.25559 10.3446 6.39047 10.5878 6.66023C10.8302 6.93 10.9514 7.22674 10.9514 7.55045C10.9514 7.85618 10.8615 8.13026 10.6817 8.37269C10.5018 8.61584 10.286 8.8633 10.0342 9.11508C9.40477 9.6546 9.02279 10.0815 8.88827 10.3959C8.75303 10.711 8.68541 11.2732 8.68541 12.0825Z" fill="#FBA81A"/>
</svg>
