<svg width="38" height="38" viewBox="0 0 38 38" fill="none" xmlns="http://www.w3.org/2000/svg">
<rect x="1" y="1" width="36" height="36" rx="18.5714" stroke="#FBA81A" stroke-width="2"/>
<path fill-rule="evenodd" clip-rule="evenodd" d="M22.1444 9.1412C21.7705 9.51514 21.7705 10.1214 22.1444 10.4954L28.2384 16.5893L8.53455 16.5893C8.00572 16.5893 7.57702 17.018 7.57702 17.5468C7.57702 18.0757 8.00572 18.5044 8.53455 18.5044L30.9465 18.5044L30.9465 16.5893H30.9462L30.9464 16.589L23.4986 9.1412C23.1246 8.76726 22.5184 8.76726 22.1444 9.1412Z" fill="#FBA81A"/>
<path fill-rule="evenodd" clip-rule="evenodd" d="M16.9399 29.4344C17.3139 29.0604 17.3139 28.4541 16.9399 28.0802L10.846 21.9863L30.5498 21.9863C31.0786 21.9863 31.5073 21.5576 31.5073 21.0287C31.5073 20.4999 31.0786 20.0712 30.5498 20.0712L8.1379 20.0712L8.1379 21.9863H8.1382L8.13794 21.9865L15.5858 29.4344C15.9597 29.8083 16.566 29.8083 16.9399 29.4344Z" fill="#FBA81A"/>
</svg>
