<svg width="26" height="26" viewBox="0 0 26 26" fill="none" xmlns="http://www.w3.org/2000/svg">
<rect x="0.619048" y="0.619048" width="24.7619" height="24.7619" rx="12.381" stroke="#000000" stroke-width="1.2381"/>
<path d="M13.2503 11.8974C14.1798 12.1834 14.9008 12.4396 15.4132 12.666C15.9256 12.8924 16.3725 13.2499 16.7538 13.7385C17.1352 14.2152 17.3258 14.8646 17.3258 15.6869C17.3258 16.2827 17.1769 16.8369 16.8789 17.3493C16.5929 17.8617 16.1461 18.2788 15.5383 18.6005C14.9306 18.9223 14.1858 19.0831 13.3039 19.0831H13.2503V20.5131H12.6962V19.0474C11.5641 18.9401 10.6406 18.5707 9.92557 17.9391C9.21057 17.2956 8.81136 16.5032 8.72794 15.5618H10.4618C10.5095 16.0623 10.724 16.533 11.1053 16.9739C11.4986 17.4029 12.0289 17.671 12.6962 17.7783V13.2023C11.7786 12.9282 11.0636 12.6839 10.5512 12.4694C10.0507 12.243 9.60977 11.8914 9.22844 11.4148C8.85902 10.9381 8.67432 10.3006 8.67432 9.50214C8.67432 8.84673 8.84115 8.26877 9.17482 7.76827C9.50848 7.26777 9.97919 6.88048 10.5869 6.60639C11.1947 6.33231 11.8978 6.19527 12.6962 6.19527V4.65802H13.2503V6.21314C14.3586 6.29656 15.2404 6.63619 15.8958 7.23202C16.5512 7.82785 16.9385 8.54881 17.0577 9.39489H15.3059C15.2225 8.94206 15.008 8.53689 14.6624 8.17939C14.3169 7.82189 13.8461 7.59548 13.2503 7.50014V11.8974ZM10.4261 9.43064C10.4261 10.0384 10.6167 10.5091 10.9981 10.8428C11.3913 11.1764 11.9574 11.4684 12.6962 11.7186V7.4644C12.005 7.4644 11.4509 7.63719 11.0338 7.98277C10.6286 8.31644 10.4261 8.79906 10.4261 9.43064ZM13.2682 17.814C14.007 17.814 14.579 17.6174 14.9842 17.2241C15.3894 16.8309 15.5919 16.3304 15.5919 15.7226C15.5919 15.0911 15.3894 14.6025 14.9842 14.2569C14.579 13.9113 14.0011 13.6194 13.2503 13.381V17.814H13.2682Z" fill="#000000"/>
</svg>
