<svg width="25" height="26" viewBox="0 0 25 26" fill="none" xmlns="http://www.w3.org/2000/svg">
<g clip-path="url(#clip0_3194_31106)">
<path d="M0 13.2952C0 9.97996 1.31696 6.80054 3.66117 4.45633C6.00537 2.11213 9.18479 0.795166 12.5 0.795166C15.8152 0.795166 18.9946 2.11213 21.3388 4.45633C23.683 6.80054 25 9.97996 25 13.2952C25 16.6104 23.683 19.7898 21.3388 22.134C18.9946 24.4782 15.8152 25.7952 12.5 25.7952C9.18479 25.7952 6.00537 24.4782 3.66117 22.134C1.31696 19.7898 0 16.6104 0 13.2952ZM11.7188 2.47798C10.6719 2.79673 9.63281 3.75923 8.77031 5.37642C8.48614 5.91406 8.24174 6.47181 8.03906 7.04517H11.7188V2.47798ZM6.39062 7.04517C6.65105 6.21519 6.98574 5.41038 7.39062 4.64048C7.66079 4.12963 7.9728 3.64202 8.32344 3.18267C6.38751 3.98552 4.72188 5.32582 3.52344 7.04517H6.39062ZM5.48125 12.5139C5.52812 11.1436 5.69688 9.82954 5.96875 8.60767H2.61563C2.033 9.83431 1.68533 11.1592 1.59063 12.5139H5.48125ZM7.57344 8.60767C7.26612 9.88861 7.08917 11.1974 7.04531 12.5139H11.7188V8.60767H7.57344ZM13.2812 8.60767V12.5139H17.9531C17.9098 11.1974 17.7334 9.88865 17.4266 8.60767H13.2812ZM7.04688 14.0764C7.09022 15.3929 7.26664 16.7017 7.57344 17.9827H11.7188V14.0764H7.04688ZM13.2812 14.0764V17.9827H17.4266C17.7188 16.7874 17.9047 15.4702 17.9547 14.0764H13.2812ZM8.03906 19.5452C8.25469 20.1483 8.5 20.7077 8.77031 21.2139C9.63281 22.8311 10.6734 23.792 11.7188 24.1124V19.5452H8.03906ZM8.32344 23.4077C7.97277 22.9483 7.66077 22.4607 7.39062 21.9499C6.98574 21.18 6.65106 20.3751 6.39062 19.5452H3.52344C4.72182 21.2646 6.38746 22.6049 8.32344 23.4077ZM5.96875 17.9827C5.68619 16.6984 5.523 15.3907 5.48125 14.0764H1.59063C1.6875 15.467 2.04531 16.7842 2.61563 17.9827H5.96875ZM16.6766 23.4077C18.6125 22.6049 20.2782 21.2646 21.4766 19.5452H18.6094C18.3489 20.3751 18.0142 21.1799 17.6094 21.9499C17.3393 22.4607 17.0273 22.9484 16.6766 23.4077ZM13.2812 19.5452V24.1124C14.3281 23.7936 15.3672 22.8311 16.2297 21.2139C16.5 20.7077 16.7453 20.1483 16.9609 19.5452H13.2812ZM19.0312 17.9827H22.3844C22.9547 16.7842 23.3125 15.467 23.4094 14.0764H19.5187C19.477 15.3907 19.3138 16.6984 19.0312 17.9827ZM23.4094 12.5139C23.3146 11.1593 22.967 9.83432 22.3844 8.60767H19.0312C19.3031 9.82954 19.4719 11.1436 19.5187 12.5139H23.4094ZM17.6094 4.64048C17.9953 5.36548 18.3312 6.17173 18.6094 7.04517H21.4766C20.2782 5.32576 18.6125 3.98544 16.6766 3.18267C17.0172 3.62642 17.3297 4.11704 17.6094 4.64048ZM16.9609 7.04517C16.7583 6.4718 16.5139 5.91406 16.2297 5.37642C15.3672 3.75923 14.3281 2.79829 13.2812 2.47798V7.04517H16.9609Z" fill="#FBA81A"/>
</g>
<defs>
<clipPath id="clip0_3194_31106">
<rect width="25" height="25" fill="white" transform="translate(0 0.795166)"/>
</clipPath>
</defs>
</svg>
