{
  "ETH_RPL_URL": "https://rpc.ankr.com/eth",
  "DEX_API_TOKENS_URL": "https://api.dexscreener.io/latest/dex/tokens",
  "DEX_API_SEARCH_URL": "https://api.dexscreener.io/latest/dex/search",
  "FETCH_BEST_PATH_URL": "https://api.internetmoney.io/fetch-best-paths",
  "FETCH_BEST_PATH_URL_UNISWAP_V2": "https://api.internetmoney.io/quote/uni-v2",
  "FETCH_BEST_PATH_URL_UNISWAP_V3": "https://api.internetmoney.io/quote/uni-v3",
  "FETCH_BEST_PATH_URL_BALANCER_V2": "https://api.internetmoney.io/quote/bal-v2",
  "FETCH_BEST_PATH_URL_PITEAS": "https://api.internetmoney.io/quote/piteas",
  "GET_SWAP_SUPPORTED_URL": "https://api.internetmoney.io/get-swap-supported-chainids",
  "GET_PRICING_SUPPORTED_URL": "https://api.internetmoney.io/get-price-supported-chainids",
  "GET_TOKEN_ICON": "https://api.internetmoney.io/get-token-icon",
  "GET_NETWORK_ICON": "https://api.internetmoney.io/get-network-icon",
  "BLANK_ICON": "https://ipfs.io/ipfs/bafybeiggra62jfjwlilxado66vt7ssp76uuy4lwfetigaykdmr2jsiardu/Blank.png.png",
  "APP_CODE": "ae153c67-024a-40c4-bb21-99fa1771738d",
  "ARGON2D_SALT": "$2b$12$XTLv5yStemjOmSII60k1lu"
}