{
  "1": "0xC02aaA39b223FE8D0A0e5C4F27eAD9083C756Cc2",
  "10": "0x4200000000000000000000000000000000000006",
  "20": "0x517E9e5d46C1EA8aB6f78677d6114Ef47F71f6c4",
  "24": "0xAF984E23EAA3E7967F3C5E007fbe397D8566D23d",
  "25": "0x5C7F8A570d578ED84E63fdFA7b1eE72dEae1AE23",
  "40": "0xD102cE6A4dB07D247fcc28F366A623Df0938CA9E",
  "56": "0xbb4cdb9cbd36b01bd1cbaebf2de08d9173bc095c",
  "57": "0xd3e822f3ef011Ca5f17D82C956D952D8d7C3A1BB",
  "61": "0x82A618305706B14e7bcf2592D4B9324A366b6dAd",
  "66": "0x8F8526dbfd6E38E3D8307702cA8469Bae6C56C15",
  "82": "0x160361ce13ec33C993b5cCA8f62B6864943eb083",
  "100": "0xe91D153E0b41518A2Ce8Dd3D7944Fa863463a97d",
  "106": "0xc579D1f3CF86749E05CD06f7ADe17856c2CE3126",
  "108": "0x413cEFeA29F2d07B8F2acFA69d92466B9535f717",
  "122": "0x0BE9e53fd7EDaC9F859882AfdDa116645287C629",
  "128": "0x5545153CCFcA01fbd7Dd11C0b23ba694D9509A6F",
  "137": "0x0d500b1d8e8ef31e21c99d1db9a6444d3adf1270",
  "250": "0x21be370d5312f44cb42ce377bc9b8a0cef1a4c83",
  "288": "0xDeadDeAddeAddEAddeadDEaDDEAdDeaDDeAD0000",
  "321": "0x4446Fc4eb47f2f6586f9fAAb68B3498F86C07521",
  "369": "0xA1077a294dDE1B09bB078844df40758a5D0f9a27",
  "416": "0xaa99bE3356a11eE92c3f099BD7a038399633566f",
  "592": "0xAeaaf0e2c81Af264101B9129C00F4440cCF0F720",
  "888": "0xdabD997aE5E4799BE47d6E69D9431615CBa28f48",
  "941": "0x8a810ea8B121d08342E9e7696f4a9915cBE494B7",
  "942": "0x70499adEBB11Efd915E3b69E700c331778628707",
  "943": "0x70499adEBB11Efd915E3b69E700c331778628707",
  "1030": "0x14b2D3bC65e74DAE1030EAFd8ac30c533c976A9b",
  "1088": "0xDeadDeAddeAddEAddeadDEaDDEAdDeaDDeAD0000",
  "1284": "0xAcc15dC74880C9944775448304B263D191c6077F",
  "1285": "0x98878B06940aE243284CA214f92Bb71a2b032B8A",
  "1818": "0x9D3F61338d6Eb394e378D28C1Fd17d5909aC6591",
  "2000": "0xB7ddC6414bf4F5515b52D8BdD69973Ae205ff101",
  "2001": "0xAE83571000aF4499798d1e3b0fA0070EB3A3E3F9",
  "2222": "0xc86c7C0eFbd6A49B35E8714C5f59D99De09A225b",
  "2611": "0x00F22F97e249B980A1df5A091FcCbd6599600779",
  "4689": "0xA00744882684C3e4747faEFD68D283eA44099D03",
  "6969": "0xDeadDeAddeAddEAddeadDEaDDEAdDeaDDeAD0000",
  "7700": "0x826551890Dc65655a0Aceca109aB11AbDbD7a07B",
  "8217": "0x19Aac5f612f524B754CA7e7c41cbFa2E981A4432",
  "9001": "0xD4949664cD82660AaE99bEdc034a0deA8A0bd517",
  "10000": "0x3743eC0673453E5009310C727Ba4eaF7b3a1cc04",
  "10001": "0x7Bf88d2c0e32dE92CdaF2D43CcDc23e8Edfd5990",
  "18159": "0xC84D8d03aA41EF941721A4D77b24bB44D7C7Ac55",
  "32520": "0x0eb9036cbE0f052386f36170c6b07eF0a0E3f710",
  "39797": "0xA55F26319462355474A9F2c8790860776a329aA4",
  "42161": "0x82aF49447D8a07e3bd95BD0d56f35241523fBab1",
  "42170": "0x722E8BdD2ce80A4422E880164f2079488e115365",
  "42220": "0x471EcE3750Da237f93B8E339c536989b8978a438",
  "42262": "0x21C718C22D52d0F3a789b752D4c2fD5908a8A733",
  "43114": "0xb31f66aa3c1e785363f0875a1b74e27b85fd66c7",
  "53935": "0xCCb93dABD71c8Dad03Fc4CE5559dC3D89F67a260",
  "71402": "0xC296F806D15e97243A08334256C705bA5C5754CD",
  "513100": "0xC02aaA39b223FE8D0A0e5C4F27eAD9083C756Cc2",
  "1313161554": "0xc9bdeed33cd01541e1eed10f90519d2c06fe3feb",
  "1666600000": "0xcF664087a5bB0237a0BAd6742852ec6c8d69A27a",
  "1666600001": "0xcF664087a5bB0237a0BAd6742852ec6c8d69A27a",
  "1666600002": "0xcF664087a5bB0237a0BAd6742852ec6c8d69A27a",
  "1666600003": "0xcF664087a5bB0237a0BAd6742852ec6c8d69A27a"
}
